{
  "uuid": "ec73340e-01ec-4a01-9c5e-584b70598307-tc-0-1000",
  "name": "NUnitTest.TestCases.RemovePostTest",
  "children": [
    "81e922f4-0d82-4bc5-ad1b-0b543a660fc6-tr-0-1004"
  ],
  "befores": [
    {
      "name": "Setup",
      "status": "failed",
      "statusDetails": {
        "known": false,
        "muted": false,
        "flaky": false,
        "message": "OpenQA.Selenium.WebDriverException : Unexpected error. System.Net.WebException: Невозможно соединиться с удаленным сервером ---> System.Net.Sockets.SocketException: Подключение не установлено, т.к. конечный компьютер отверг запрос на подключение 127.0.0.1:50286\r\n   в System.Net.Sockets.Socket.DoConnect(EndPoint endPointSnapshot, SocketAddress socketAddress)\r\n   в System.Net.ServicePoint.ConnectSocketInternal(Boolean connectFailure, Socket s4, Socket s6, Socket& socket, IPAddress& address, ConnectSocketState state, IAsyncResult asyncResult, Exception& exception)\r\n   --- Конец трассировки внутреннего стека исключений ---\r\n   в System.Net.HttpWebRequest.GetRequestStream(TransportContext& context)\r\n   в System.Net.HttpWebRequest.GetRequestStream()\r\n   в OpenQA.Selenium.Remote.HttpCommandExecutor.MakeHttpRequest(HttpRequestInfo requestInfo)\r\n   в OpenQA.Selenium.Remote.HttpCommandExecutor.Execute(Command commandToExecute)\r\n   в OpenQA.Selenium.Remote.DriverServiceCommandExecutor.Execute(Command commandToExecute)\r\n   в OpenQA.Selenium.Remote.RemoteWebDriver.Execute(String driverCommandToExecute, Dictionary`2 parameters)\r\nTearDown : OpenQA.Selenium.WebDriverException : A exception with a null response was thrown sending an HTTP request to the remote WebDriver server for URL http://localhost:50286/session//screenshot. The status of the exception was ConnectFailure, and the message was: Невозможно соединиться с удаленным сервером\r\n  ----> System.Net.WebException : Невозможно соединиться с удаленным сервером\r\n  ----> System.Net.Sockets.SocketException : Подключение не установлено, т.к. конечный компьютер отверг запрос на подключение 127.0.0.1:50286",
        "trace": "   в OpenQA.Selenium.Remote.RemoteWebDriver.UnpackAndThrowOnError(Response errorResponse)\r\n   в OpenQA.Selenium.Remote.RemoteWebDriver.Execute(String driverCommandToExecute, Dictionary`2 parameters)\r\n   в OpenQA.Selenium.Remote.RemoteWebDriver.set_Url(String value)\r\n   в NUnitTest.Base.Setup() в D:\\Education\\QA\\Lab3\\NUnitTestApp\\NUnitTest\\Base.cs:строка 23\r\n--TearDown\r\n   в OpenQA.Selenium.Remote.HttpCommandExecutor.MakeHttpRequest(HttpRequestInfo requestInfo)\r\n   в OpenQA.Selenium.Remote.HttpCommandExecutor.Execute(Command commandToExecute)\r\n   в OpenQA.Selenium.Remote.DriverServiceCommandExecutor.Execute(Command commandToExecute)\r\n   в OpenQA.Selenium.Remote.RemoteWebDriver.Execute(String driverCommandToExecute, Dictionary`2 parameters)\r\n   в OpenQA.Selenium.Remote.RemoteWebDriver.GetScreenshot()\r\n   в NUnitTest.Base.TearDown() в D:\\Education\\QA\\Lab3\\NUnitTestApp\\NUnitTest\\Base.cs:строка 36\r\n--WebException\r\n   в System.Net.HttpWebRequest.GetResponse()\r\n   в OpenQA.Selenium.Remote.HttpCommandExecutor.MakeHttpRequest(HttpRequestInfo requestInfo)\r\n--SocketException\r\n   в System.Net.Sockets.Socket.DoConnect(EndPoint endPointSnapshot, SocketAddress socketAddress)\r\n   в System.Net.ServicePoint.ConnectSocketInternal(Boolean connectFailure, Socket s4, Socket s6, Socket& socket, IPAddress& address, ConnectSocketState state, IAsyncResult asyncResult, Exception& exception)"
      },
      "stage": "finished",
      "steps": [],
      "attachments": [],
      "parameters": [],
      "start": 1612378928983,
      "stop": 1612378928983
    }
  ],
  "afters": [
    {
      "name": "TearDown",
      "status": "failed",
      "statusDetails": {
        "known": false,
        "muted": false,
        "flaky": false,
        "message": "OpenQA.Selenium.WebDriverException : Unexpected error. System.Net.WebException: Невозможно соединиться с удаленным сервером ---> System.Net.Sockets.SocketException: Подключение не установлено, т.к. конечный компьютер отверг запрос на подключение 127.0.0.1:50286\r\n   в System.Net.Sockets.Socket.DoConnect(EndPoint endPointSnapshot, SocketAddress socketAddress)\r\n   в System.Net.ServicePoint.ConnectSocketInternal(Boolean connectFailure, Socket s4, Socket s6, Socket& socket, IPAddress& address, ConnectSocketState state, IAsyncResult asyncResult, Exception& exception)\r\n   --- Конец трассировки внутреннего стека исключений ---\r\n   в System.Net.HttpWebRequest.GetRequestStream(TransportContext& context)\r\n   в System.Net.HttpWebRequest.GetRequestStream()\r\n   в OpenQA.Selenium.Remote.HttpCommandExecutor.MakeHttpRequest(HttpRequestInfo requestInfo)\r\n   в OpenQA.Selenium.Remote.HttpCommandExecutor.Execute(Command commandToExecute)\r\n   в OpenQA.Selenium.Remote.DriverServiceCommandExecutor.Execute(Command commandToExecute)\r\n   в OpenQA.Selenium.Remote.RemoteWebDriver.Execute(String driverCommandToExecute, Dictionary`2 parameters)\r\nTearDown : OpenQA.Selenium.WebDriverException : A exception with a null response was thrown sending an HTTP request to the remote WebDriver server for URL http://localhost:50286/session//screenshot. The status of the exception was ConnectFailure, and the message was: Невозможно соединиться с удаленным сервером\r\n  ----> System.Net.WebException : Невозможно соединиться с удаленным сервером\r\n  ----> System.Net.Sockets.SocketException : Подключение не установлено, т.к. конечный компьютер отверг запрос на подключение 127.0.0.1:50286",
        "trace": "   в OpenQA.Selenium.Remote.RemoteWebDriver.UnpackAndThrowOnError(Response errorResponse)\r\n   в OpenQA.Selenium.Remote.RemoteWebDriver.Execute(String driverCommandToExecute, Dictionary`2 parameters)\r\n   в OpenQA.Selenium.Remote.RemoteWebDriver.set_Url(String value)\r\n   в NUnitTest.Base.Setup() в D:\\Education\\QA\\Lab3\\NUnitTestApp\\NUnitTest\\Base.cs:строка 23\r\n--TearDown\r\n   в OpenQA.Selenium.Remote.HttpCommandExecutor.MakeHttpRequest(HttpRequestInfo requestInfo)\r\n   в OpenQA.Selenium.Remote.HttpCommandExecutor.Execute(Command commandToExecute)\r\n   в OpenQA.Selenium.Remote.DriverServiceCommandExecutor.Execute(Command commandToExecute)\r\n   в OpenQA.Selenium.Remote.RemoteWebDriver.Execute(String driverCommandToExecute, Dictionary`2 parameters)\r\n   в OpenQA.Selenium.Remote.RemoteWebDriver.GetScreenshot()\r\n   в NUnitTest.Base.TearDown() в D:\\Education\\QA\\Lab3\\NUnitTestApp\\NUnitTest\\Base.cs:строка 36\r\n--WebException\r\n   в System.Net.HttpWebRequest.GetResponse()\r\n   в OpenQA.Selenium.Remote.HttpCommandExecutor.MakeHttpRequest(HttpRequestInfo requestInfo)\r\n--SocketException\r\n   в System.Net.Sockets.Socket.DoConnect(EndPoint endPointSnapshot, SocketAddress socketAddress)\r\n   в System.Net.ServicePoint.ConnectSocketInternal(Boolean connectFailure, Socket s4, Socket s6, Socket& socket, IPAddress& address, ConnectSocketState state, IAsyncResult asyncResult, Exception& exception)"
      },
      "stage": "finished",
      "steps": [],
      "attachments": [],
      "parameters": [],
      "start": 1612378928983,
      "stop": 1612378928983
    }
  ],
  "links": [],
  "start": 1612378920897,
  "stop": 1612378928994
}