{
  "uuid": "f5e15eac-7f67-4d10-85bb-d4c095551ebd-tr-0-1002",
  "historyId": "NUnitTest.TestCases.PostTest",
  "fullName": "NUnitTest.TestCases.PostTest",
  "labels": [
    {
      "name": "thread",
      "value": "NonParallelWorker"
    },
    {
      "name": "host",
      "value": "DESKTOP-A9UVMLK"
    },
    {
      "name": "testClass",
      "value": "NUnitTest.TestCases"
    },
    {
      "name": "testMethod",
      "value": "PostTest"
    },
    {
      "name": "package",
      "value": "NUnitTest.TestCases"
    },
    {
      "name": "tag",
      "value": "NUnit"
    }
  ],
  "links": [],
  "name": "PostTest",
  "status": "passed",
  "statusDetails": {
    "known": false,
    "muted": false,
    "flaky": false
  },
  "stage": "finished",
  "steps": [
    {
      "name": "PostTest",
      "status": "passed",
      "statusDetails": {
        "known": false,
        "muted": false,
        "flaky": false
      },
      "stage": "finished",
      "steps": [],
      "attachments": [
        {
          "name": "Screen",
          "source": "2c5e60ae919b4799b88d8d280904ace2-attachment.png"
        },
        {
          "name": "Console Output",
          "source": "6a7298b85e4740b9a3ddaca8fd0e3d76-attachment.txt",
          "type": "text/plain"
        }
      ],
      "parameters": [],
      "start": 1612380632743,
      "stop": 1612380646049
    }
  ],
  "attachments": [],
  "parameters": [],
  "start": 1612380632743,
  "stop": 1612380646049
}