{
  "uuid": "b887ce45-0aa5-4999-88a6-15f5e34dfddc-tc-0-1000",
  "name": "NUnitTest.TestCases.LoginTest",
  "children": [
    "1780de7e-49e2-4a13-ac46-b04cb0ce8bf6-tr-0-1001"
  ],
  "befores": [
    {
      "name": "Setup",
      "status": "passed",
      "statusDetails": {
        "known": false,
        "muted": false,
        "flaky": false
      },
      "stage": "finished",
      "steps": [],
      "attachments": [],
      "parameters": [],
      "start": 1612378999727,
      "stop": 1612378999727
    }
  ],
  "afters": [
    {
      "name": "TearDown",
      "status": "passed",
      "statusDetails": {
        "known": false,
        "muted": false,
        "flaky": false
      },
      "stage": "finished",
      "steps": [],
      "attachments": [],
      "parameters": [],
      "start": 1612378999727,
      "stop": 1612378999727
    }
  ],
  "links": [],
  "start": 1612378995942,
  "stop": 1612378999787
}