{
  "uuid": "8eb5a0b0-a377-4a7c-9aa4-e1630db91170-tc-0-1000",
  "name": "NUnitTest.TestCases.LogoutTest",
  "children": [
    "7ce2193c-be32-4932-8fc8-0e6696a05d9c-tr-0-1010"
  ],
  "befores": [
    {
      "name": "Setup",
      "status": "passed",
      "statusDetails": {
        "known": false,
        "muted": false,
        "flaky": false
      },
      "stage": "finished",
      "steps": [],
      "attachments": [],
      "parameters": [],
      "start": 1612438953412,
      "stop": 1612438953412
    }
  ],
  "afters": [
    {
      "name": "TearDown",
      "status": "passed",
      "statusDetails": {
        "known": false,
        "muted": false,
        "flaky": false
      },
      "stage": "finished",
      "steps": [],
      "attachments": [],
      "parameters": [],
      "start": 1612438953412,
      "stop": 1612438953412
    }
  ],
  "links": [],
  "start": 1612438942719,
  "stop": 1612438953419
}