{
  "uuid": "3dcf66f1-4de2-4ee8-8746-59dd2942160b-tr-0-1004",
  "historyId": "NUnitTest.TestCases.RemovePostTest",
  "fullName": "NUnitTest.TestCases.RemovePostTest",
  "labels": [
    {
      "name": "thread",
      "value": "NonParallelWorker"
    },
    {
      "name": "host",
      "value": "DESKTOP-A9UVMLK"
    },
    {
      "name": "testClass",
      "value": "NUnitTest.TestCases"
    },
    {
      "name": "testMethod",
      "value": "RemovePostTest"
    },
    {
      "name": "package",
      "value": "NUnitTest.TestCases"
    }
  ],
  "links": [],
  "name": "RemovePostTest",
  "status": "failed",
  "statusDetails": {
    "known": false,
    "muted": false,
    "flaky": false,
    "message": "OpenQA.Selenium.WebDriverException : Unexpected error. System.Net.WebException: Невозможно соединиться с удаленным сервером ---> System.Net.Sockets.SocketException: Подключение не установлено, т.к. конечный компьютер отверг запрос на подключение 127.0.0.1:50536\r\n   в System.Net.Sockets.Socket.DoConnect(EndPoint endPointSnapshot, SocketAddress socketAddress)\r\n   в System.Net.ServicePoint.ConnectSocketInternal(Boolean connectFailure, Socket s4, Socket s6, Socket& socket, IPAddress& address, ConnectSocketState state, IAsyncResult asyncResult, Exception& exception)\r\n   --- Конец трассировки внутреннего стека исключений ---\r\n   в System.Net.HttpWebRequest.GetRequestStream(TransportContext& context)\r\n   в System.Net.HttpWebRequest.GetRequestStream()\r\n   в OpenQA.Selenium.Remote.HttpCommandExecutor.MakeHttpRequest(HttpRequestInfo requestInfo)\r\n   в OpenQA.Selenium.Remote.HttpCommandExecutor.Execute(Command commandToExecute)\r\n   в OpenQA.Selenium.Remote.DriverServiceCommandExecutor.Execute(Command commandToExecute)\r\n   в OpenQA.Selenium.Remote.RemoteWebDriver.Execute(String driverCommandToExecute, Dictionary`2 parameters)\r\nTearDown : OpenQA.Selenium.WebDriverException : A exception with a null response was thrown sending an HTTP request to the remote WebDriver server for URL http://localhost:50536/session//screenshot. The status of the exception was ConnectFailure, and the message was: Невозможно соединиться с удаленным сервером\r\n  ----> System.Net.WebException : Невозможно соединиться с удаленным сервером\r\n  ----> System.Net.Sockets.SocketException : Подключение не установлено, т.к. конечный компьютер отверг запрос на подключение 127.0.0.1:50536",
    "trace": "   в OpenQA.Selenium.Remote.RemoteWebDriver.UnpackAndThrowOnError(Response errorResponse)\r\n   в OpenQA.Selenium.Remote.RemoteWebDriver.Execute(String driverCommandToExecute, Dictionary`2 parameters)\r\n   в OpenQA.Selenium.Remote.RemoteWebDriver.set_Url(String value)\r\n   в NUnitTest.Base.Setup() в D:\\Education\\QA\\Lab3\\NUnitTestApp\\NUnitTest\\Base.cs:строка 23\r\n--TearDown\r\n   в OpenQA.Selenium.Remote.HttpCommandExecutor.MakeHttpRequest(HttpRequestInfo requestInfo)\r\n   в OpenQA.Selenium.Remote.HttpCommandExecutor.Execute(Command commandToExecute)\r\n   в OpenQA.Selenium.Remote.DriverServiceCommandExecutor.Execute(Command commandToExecute)\r\n   в OpenQA.Selenium.Remote.RemoteWebDriver.Execute(String driverCommandToExecute, Dictionary`2 parameters)\r\n   в OpenQA.Selenium.Remote.RemoteWebDriver.GetScreenshot()\r\n   в NUnitTest.Base.TearDown() в D:\\Education\\QA\\Lab3\\NUnitTestApp\\NUnitTest\\Base.cs:строка 36\r\n--WebException\r\n   в System.Net.HttpWebRequest.GetResponse()\r\n   в OpenQA.Selenium.Remote.HttpCommandExecutor.MakeHttpRequest(HttpRequestInfo requestInfo)\r\n--SocketException\r\n   в System.Net.Sockets.Socket.DoConnect(EndPoint endPointSnapshot, SocketAddress socketAddress)\r\n   в System.Net.ServicePoint.ConnectSocketInternal(Boolean connectFailure, Socket s4, Socket s6, Socket& socket, IPAddress& address, ConnectSocketState state, IAsyncResult asyncResult, Exception& exception)"
  },
  "stage": "finished",
  "description": "\nSetup SetUp method failed\n\nTearDown TearDown method failed\n",
  "steps": [
    {
      "name": "RemovePostTest skipped because of Setup failure",
      "status": "skipped",
      "statusDetails": {
        "known": false,
        "muted": false,
        "flaky": false,
        "message": "OpenQA.Selenium.WebDriverException : Unexpected error. System.Net.WebException: Невозможно соединиться с удаленным сервером ---> System.Net.Sockets.SocketException: Подключение не установлено, т.к. конечный компьютер отверг запрос на подключение 127.0.0.1:50536\r\n   в System.Net.Sockets.Socket.DoConnect(EndPoint endPointSnapshot, SocketAddress socketAddress)\r\n   в System.Net.ServicePoint.ConnectSocketInternal(Boolean connectFailure, Socket s4, Socket s6, Socket& socket, IPAddress& address, ConnectSocketState state, IAsyncResult asyncResult, Exception& exception)\r\n   --- Конец трассировки внутреннего стека исключений ---\r\n   в System.Net.HttpWebRequest.GetRequestStream(TransportContext& context)\r\n   в System.Net.HttpWebRequest.GetRequestStream()\r\n   в OpenQA.Selenium.Remote.HttpCommandExecutor.MakeHttpRequest(HttpRequestInfo requestInfo)\r\n   в OpenQA.Selenium.Remote.HttpCommandExecutor.Execute(Command commandToExecute)\r\n   в OpenQA.Selenium.Remote.DriverServiceCommandExecutor.Execute(Command commandToExecute)\r\n   в OpenQA.Selenium.Remote.RemoteWebDriver.Execute(String driverCommandToExecute, Dictionary`2 parameters)\r\nTearDown : OpenQA.Selenium.WebDriverException : A exception with a null response was thrown sending an HTTP request to the remote WebDriver server for URL http://localhost:50536/session//screenshot. The status of the exception was ConnectFailure, and the message was: Невозможно соединиться с удаленным сервером\r\n  ----> System.Net.WebException : Невозможно соединиться с удаленным сервером\r\n  ----> System.Net.Sockets.SocketException : Подключение не установлено, т.к. конечный компьютер отверг запрос на подключение 127.0.0.1:50536",
        "trace": "   в OpenQA.Selenium.Remote.RemoteWebDriver.UnpackAndThrowOnError(Response errorResponse)\r\n   в OpenQA.Selenium.Remote.RemoteWebDriver.Execute(String driverCommandToExecute, Dictionary`2 parameters)\r\n   в OpenQA.Selenium.Remote.RemoteWebDriver.set_Url(String value)\r\n   в NUnitTest.Base.Setup() в D:\\Education\\QA\\Lab3\\NUnitTestApp\\NUnitTest\\Base.cs:строка 23\r\n--TearDown\r\n   в OpenQA.Selenium.Remote.HttpCommandExecutor.MakeHttpRequest(HttpRequestInfo requestInfo)\r\n   в OpenQA.Selenium.Remote.HttpCommandExecutor.Execute(Command commandToExecute)\r\n   в OpenQA.Selenium.Remote.DriverServiceCommandExecutor.Execute(Command commandToExecute)\r\n   в OpenQA.Selenium.Remote.RemoteWebDriver.Execute(String driverCommandToExecute, Dictionary`2 parameters)\r\n   в OpenQA.Selenium.Remote.RemoteWebDriver.GetScreenshot()\r\n   в NUnitTest.Base.TearDown() в D:\\Education\\QA\\Lab3\\NUnitTestApp\\NUnitTest\\Base.cs:строка 36\r\n--WebException\r\n   в System.Net.HttpWebRequest.GetResponse()\r\n   в OpenQA.Selenium.Remote.HttpCommandExecutor.MakeHttpRequest(HttpRequestInfo requestInfo)\r\n--SocketException\r\n   в System.Net.Sockets.Socket.DoConnect(EndPoint endPointSnapshot, SocketAddress socketAddress)\r\n   в System.Net.ServicePoint.ConnectSocketInternal(Boolean connectFailure, Socket s4, Socket s6, Socket& socket, IPAddress& address, ConnectSocketState state, IAsyncResult asyncResult, Exception& exception)"
      },
      "stage": "finished",
      "steps": [],
      "attachments": [
        {
          "name": "Console Output",
          "source": "2231fa8f0a04476eada5f86842f8f2ea-attachment.txt",
          "type": "text/plain"
        }
      ],
      "parameters": [],
      "start": 1612379316869,
      "stop": 1612379325043
    }
  ],
  "attachments": [],
  "parameters": [],
  "start": 1612379316869,
  "stop": 1612379325043
}