{
  "uuid": "351c360f-3c6e-4b0e-9af2-4d7fbb464e0e-tc-0-1000",
  "name": "NUnitTest.TestCases.PostTest",
  "children": [
    "f5e15eac-7f67-4d10-85bb-d4c095551ebd-tr-0-1002"
  ],
  "befores": [
    {
      "name": "Setup",
      "status": "passed",
      "statusDetails": {
        "known": false,
        "muted": false,
        "flaky": false
      },
      "stage": "finished",
      "steps": [],
      "attachments": [],
      "parameters": [],
      "start": 1612380646049,
      "stop": 1612380646049
    }
  ],
  "afters": [
    {
      "name": "TearDown",
      "status": "passed",
      "statusDetails": {
        "known": false,
        "muted": false,
        "flaky": false
      },
      "stage": "finished",
      "steps": [],
      "attachments": [],
      "parameters": [],
      "start": 1612380646049,
      "stop": 1612380646049
    }
  ],
  "links": [],
  "start": 1612380632743,
  "stop": 1612380646054
}